"Precision","Recall"
84.7089578604668,99.0169944162158
87.614444618002,94.1495655655863
54.1359751181855,78.5050265632889
72.6065469749447,71.2251055186314
88.1826026951488,89.9229783303429
92,84.1681992277964
65.5217195672571,88.3489403211132
78.1165590596116,84.478681886635
92.6274664002196,93.2262223621606
70.3862709246452,96.2785294489124
97,70.8293984201019
93,87.0212144008764
72.2187060312536,49.5440995856833
83.6480839992025,75.2978386434005
85.694056795055,81.2990910936704
72.3845648203353,56.2151286329137
68.8067445603572,97.680583747182
81.8847858319311,99
92.5079514429601,84.0852321794802
68.6525900887624,96
85.8971937714306,92.9560312047496
67.0272898601179,85.0340374258258
68.3387756246461,93.4778028000021
87.4031931175276,88.2079386199379
77.8958891109342,74.9085299803066
97.2320958062053,92.9969320820892
77.6001356618267,85.2107219288677
63.9055510958165,97.5043358854619
81.1253598590704,63.6291305805897
80.3635905736935,76.5207541820938
96.3745511634017,92.2585183977322
71.9703223766671,77.345094058276
70.1827552540097,91.8649705505579
77.8963328577079,78.9889007388038
81.0118308655496,97.3932008342698
72.3927370163531,97.7854261735056
87.6497778079781,70.5209244658096
89.9160855636323,71.1293468848875
73.7484469682512,94
89.1525032352351,82.1633931754039
81.6511636006607,91
77.2994038730989,95.2181978224433
