"Precision","Recall"
6.60221956334944,1
7,30.3428723131217
9,46.8450299607924
0,24.4818343187706
23.3977305342828,31.3018799767766
12.8837572453153,5.59412876080192
9,27.5135671113973
27.9551526236627,5.13964168591484
3.6616001175762,33.503280938189
1.80414524839749,57.7992355908781
5.67612089055149,37.3911779282471
0.0875549221359275,66.6578848786536
25.2325636836826,32.02735045796
0.460413437391555,18.0443833536369
59.9551421358592,7.12242657217923
17.4211760807523,24.7454456592494
11.2775870653982,6.35089546575988
1.10792083736286,9
45.6540515193004,15.5591567979472
62.9947081347706,34.8395327049988
61.9807544514048,8.83678005880819
9.74080111080493,35.251347699334
28.4600346355948,12.7534197266265
15.7262096898811,30.8235324064377
3,28.7880870268334
58.0325035074299,31.274196050852
1.44326610303796,1
34.3835420424583,23.6682772064257
5,14.4113842314271
33.9661463318857,40.7848563831295
3,31.3767499052508
30.5704488808741,51.3295696994846
9.33491440713367,14.0439129852617
21.1527412676107,4
25.788866896951,23.3674191471066
7.8489096011987,40.2635085917141
11.8267516513622,67.1898197290816
44.8178540249625,13.6219875918689
38.2707806539336,46.5872617273469
28.5874701703307,5.42164456485546
5.43275784509509,1.6002770222582
36.2262702912676,3
