"Precision","Recall"
74.248016479887,72.7323558707002
71.8109039677312,74.6273869763305
79.3790867731588,87.8305570457608
70.1964139977242,71.274466997844
67.7904944851661,45.6517183989528
63.1995327674699,81.2712296500652
97.5750711655829,72.4404074364869
74.2722816933831,83.3889652634592
76.5517313093362,73.3969263220724
68.957432565671,88.2425741240999
75.5051280532041,81.3272992592542
82.538939318567,56.5425023387012
86.5928836919556,74.0759054053783
94.027720971761,86.5988246310321
78.7306055828326,82.3889689658825
84.0729479282914,74.6361765909426
65.9714657476342,75.2233811799832
81.3972657193841,59.0343451307257
81.1472537351939,77.1264633299177
93.6516172682992,78.6262848225635
43.8511826588947,86.596466412834
66.0907951443503,40.0456887370667
71.1481909945735,74.1852804723989
48.0149280961782,89.8759121975728
76.0005021157538,74.1453102270316
46.9208257397405,80.3537202390907
87.7059815629683,66.0120684440101
73.5167173864263,80.1763081157624
73.0797744692261,91.929673470876
84.9877172293256,67.9553314034678
77.555557332327,77.9280130510736
83.3158540334524,76.6034969947241
86.1080817773647,54.434011692646
54.2706602538562,90
72.0285009188063,82.0336684201105
76.4755732830635,61.0404307283786
50.4265616012375,55.9764672751685
49.9950548175209,46.1724143909732
89.0071846895013,88.150055524673
69.8315066113662,82.5917649610145
52.5645197544969,87.2770116088368
78.387548744753,59.462378745171
51.7661439767876,86.8293475131807
91.5479141581244,74.1313329110379
40.8066531519845,63.326824804066
70.8060738740391,86.456049033413
52.2617585607623,69.2227022038946
42.934446579079,43.2387718211693
67.8413926047929,49.9836756674239
70.6908792897306,66.8919839644935
85.0124660770206,95.6849824003659
95.3000138660109,72.0540688635872
91.8293919854231,67.1881336150083
63.3772266790249,85.6080170849646
69.083917723677,61.2597107509948
48.8965525264677,65.9171562836702
89.6488636975984,85.1167983042007
73.7943525850703,81.2846745603586
84.0201045130813,51.4770855299016
63.3181334192212,79.3895251435156
39.6309044524014,91.6483037794501
71.1671647919167,96
64.0489488232161,97.7696277352561
63.1586781427798,94.5660016394924
90.7498907934556,59.0873069988296
76.6384011508655,91.2641185213777
54.7923584073396,52.1982306533802
80.4055235043131,85.2452169727553
58.0033714663896,76.2548617653686
61.7861856151621,85.4530350738521
50.2771059689066,65.2326737074468
68.5991650201751,60.9118868543405
65.3633215913258,85.538102398916
72.3956203954214,76.1690383414561
65.3461675423757,50.68123121741
60.400352518545,89.8209351539131
62.5526695276187,57.2399689154257
83.6904700144094,83.4587365581141
61.0454661621752,76.0775287996593
74.9200930479654,64.8419836086187
63.0768160140609,76.2443627054353
62.5061726827868,76.1421631083755
54.6144626448962,86.7343964664138
66.6441462318621,44.7652544881623
83.0927628072301,53.2645368808666
82.5325363822934,82.8076500820607
31.3336451523363,66.0697436115523
60.0160383039311,90
69.3874048245127,89.580670791447
83.68935778161,99.4186680686861
76.4869155542517,68.7755157114522
71.8491904409362,86.6911363731171
88.1248932620625,80.9540129062876
46.2281289694051,69.0679696185781
87.986784016907,93.0767814519252
66.0046166502425,57.6325585264766
57.7308515273353,70.1601728308564
67.9013600700936,72.2295535124845
41.5089373723466,49.0931274529012
85.1949359433976,74.2003189294847
70.6742305066612,82.6556879107728
85.9062562515084,58.1230760738907
75.9195791615801,63.4419996806947
65.1730947612754,80.8001847984211
97,71.3239898496526
45.9604323688747,76.2077744287776
65.1116923952539,69.5014068627547
68.7577369909936,63.290147513727
66.5936003378199,68.3006042195376
58.6954687549371,57.3697504672799
63.6012413846937,57.5797153841785
83.2903115047738,62.9053362458419
72.8650019696092,61.5945438106647
68.7810498245629,66.6085685752333
95.6947828932889,88.3324152997401
68.220765797286,69.9593553403158
77.7118090325239,87.8266674342259
70.9500320435733,62.6695339730745
76.1394536762103,48.8373439459628
85.8890187612934,85.0485679328002
77.0212728803539,64.7933744496082
