"Precision","Recall"
35.5329949238579,49.645390070922
24.8148148148148,71.2765957446808
38.7640449438202,52.2727272727273
29.8245614035088,64.7619047619048
40.9090909090909,68.4782608695652
18.2539682539683,54.7619047619048
39.7790055248619,63.1578947368421
31.8181818181818,86.4197530864197
42.0382165605096,92.9577464788732
15.5172413793103,45.6521739130435
19.4520547945205,68.2692307692308
30.7317073170732,34.0540540540541
42.1686746987952,60.3448275862069
38.4180790960452,71.5789473684211
48.2758620689655,55.5555555555556
14.4736842105263,45.2054794520548
50.3597122302158,78.6516853932584
57.1428571428571,44.9704142011834
32.4200913242009,85.5421686746988
58.7301587301587,60.1626016260163
27.5985663082437,70.6422018348624
18.6842105263158,67.6190476190476
16.1971830985916,68.3168316831683
68.4684684684685,44.9704142011834
38.0116959064327,20.0617283950617
40.5405405405405,53.9568345323741
49.3055555555556,45.2229299363057
18.0904522613065,73.469387755102
34.7593582887701,64.3564356435644
27.1375464684015,39.0374331550802
56.0344827586207,75.5813953488372
30.9417040358744,47.2602739726027
56,66.6666666666667
13.9489194499018,69.6078431372549
45.1219512195122,78.7234042553192
19.8924731182796,59.6774193548387
30.2325581395349,51.5873015873016
9.34579439252336,44.8717948717949
36.2694300518135,88.6075949367088
47.5177304964539,22.0394736842105
30,67.6470588235294
40.3409090909091,43.2926829268293
22.2222222222222,81.0126582278481
47.0198675496689,54.6153846153846
47.972972972973,48.2993197278912
49.618320610687,49.618320610687
37.5661375661376,61.2068965517241
36.5979381443299,71.7171717171717
37.7777777777778,66.0194174757282
17.9558011049724,55.5555555555556
46.3576158940397,49.2957746478873
30,55.8139534883721
34.8039215686275,37.5661375661376
39.7727272727273,67.3076923076923
37.7049180327869,66.3461538461538
26.3157894736842,55.5555555555556
43.5064935064935,41.6149068322981
64.4230769230769,65.6862745098039
33.0275229357798,46.7532467532467
42.2619047619048,41.2790697674419
33.4883720930233,80
63.1578947368421,45.859872611465
71,55.0387596899225
63.5593220338983,46.0122699386503
61.6161616161616,32.972972972973
58.59375,64.6551724137931
29.6137339055794,68.3168316831683
43.4782608695652,59.3220338983051
38.6243386243386,68.8679245283019
45.1612903225806,63.6363636363636
85.3658536585366,80.4597701149425
36.2162162162162,60.9090909090909
80.6818181818182,82.5581395348837
41.4201183431953,63.6363636363636
48.9655172413793,42.0118343195266
52.755905511811,62.6168224299065
55.0387596899225,30.7359307359307
48.0314960629921,78.2051282051282
68.2242990654206,34.2723004694836
29.8755186721992,35.6435643564356
50,51.9685039370079
8.71613663133098,61.1570247933884
16.5094339622642,60.8695652173913
13.1086142322097,17.8571428571429
57.03125,61.864406779661
64.4859813084112,69
70.3296703296703,81.0126582278481
54.0983606557377,59.4594594594595
33.1818181818182,84.8837209302326
48.1012658227848,64.957264957265
51.1627906976744,53.6585365853659
47.9166666666667,45.0980392156863
50.7142857142857,66.9811320754717
43.9024390243902,75
37.3626373626374,77.2727272727273
58.3333333333333,79.5454545454545
45.1388888888889,59.6330275229358
59.2920353982301,65.6862745098039
45.3333333333333,53.5433070866142
52.3076923076923,60.1769911504425
57.8512396694215,56.4516129032258
23.859649122807,63.5514018691589
64.4230769230769,58.7719298245614
68.4210526315789,65.6565656565657
51.0489510489511,13.9579349904398
61.5384615384615,67.9245283018868
36.2162162162162,40.6060606060606
29.3172690763052,73.7373737373737
20.7602339181287,46.7105263157895
31.5555555555556,32.1266968325792
60,55.3846153846154
16.945107398568,59.6638655462185
14.6443514644351,51.4705882352941
44.4444444444444,49.6551724137931
52.2058823529412,23.3552631578947
68.9320388349515,48.9655172413793
44.3786982248521,46.0122699386503
65.1376146788991,56.3492063492063
37.9120879120879,76.6666666666667
52.3076923076923,65.3846153846154
47.5609756097561,52.7027027027027
