"Precision","Recall"
34.8287000880618,1
17.8021732698347,60.4154585935015
34.3591856042007,66.9554653207243
53.1955275451559,37.1778572601941
6.36421298425271,48.7558059637071
33.7267924042754,54.1462985905361
18.0091598734471,16.6266398836536
17.6151776638662,27.962774381399
42.8923988624989,10.4510885454206
29.0920179378234,57.489788351349
28.5142722760783,33.9462760725296
33.9720608555022,15.3431731572837
36.0731083048753,28.8751483032737
30.5360979428344,12.2190406026345
32.9493457134357,22.2385657950547
8.686968649784,35.8180491511547
26.4937005419849,35.316517770875
30.9780648223405,62.3894665998185
22.9215113680562,42.3852107050055
41.4718912596671,21.7625280483983
32.6259241053017,21.7699932221782
16.9222517349176,33.2195846272706
16.0691189292917,24.6278230273912
8.41816153105495,58.8048738765352
32.7533192172304,48.3729790150653
36.2748102511269,29.8714646633647
16.1410695672002,53.3908237024959
2,14.399611132101
2.79885701010469,29.9134513055369
9.53971748294578,23.635333338575
20.1874540923136,32.2798589597052
7,45.5360675239206
22.2207649872241,31.7916888575397
8.80503466872134,21.2964929379815
53.8022068672874,37.5917152972466
6.90329351179629,8.70104817405404
45.0213245164384,44.6385728933678
69.7815451533649,37.6617839592573
23.396696505284,4.89774040317327
14.7223272911585,54.7391287953772
60.8008384435414,39.3792312526103
36.4724711420916,42.8046971386941
29.0514513906215,46.3491189217527
66.3586659287544,23.3856865970791
24.3250147967378,32.6115162905392
21.8906386277855,47.7860222372299
17.9902442165593,46.0286438869551
40.596428492677,43.5517238652208
30.2279095775228,27.3127290852133
43.6725324743131,31.7039151505454
36.4898626060836,35.6659218564291
25.9778047554421,15.1960550857003
43.7063150871485,47.0442202036436
50.2630742861391,48.8834392894813
46.5760550428084,16.7218641713268
12.3591875806218,39.4701763726781
35.2889548371897,53.2808144797432
32.80851319261,34.9910044673012
36.2391552622972,20.2378204458282
60.2075655151651,46.5543189809993
42.9231716814468,40.0315593641364
17.2688712039456,49.0865925007092
5.15076523385663,31.3590693383231
19.8037519175938,58.8400042390142
9.16448373014606,6.01277065786416
38.5054133614454,17.1261076765442
51.7341168927112,15.7324867029682
21.7217070825926,27.1151166277328
35.6459261410273,20.9162711863509
39.9151126303287,58.8128411248998
24.0864351708513,35.5428336686552
73.0349646028444,43.5596799722658
38.4256952702512,27.4719916861446
49.0737704052811,45.6360500004371
35.5573523350583,37.3540930725675
29.4265241884459,50.5792119862092
60.8155471649928,39.6711706963839
14.1297931642968,37.9908032210186
32.8613196773531,41.1588113664818
11.4661391916757,49.6047328117883
48.500112182789,56.8009584699921
2.4324363701793,69.8759374156389
57.8620740514837,43.1194150999218
39.0193750501398,24.1145547683073
27.5312606746955,33.603608062253
42.3714362577796,64.8672976512642
36.1793695741175,44.7372951417244
16.814258078072,68.0837898235215
31.2682649449032,40.2717577206311
37.6084708613013,28.3294359412259
28.9199833436053,8.42016131189471
5.35633303309306,32.4793040226742
66.9446663098773,41.7364996322038
18.9282877120533,43.3578681062603
32.2151375258801,54.6735422568327
46.0777334895337,32.7791503093293
27.6301418572411,28.0828302262604
40.3178039304679,26.9717677103632
44.0812560820915,6.00916496574903
49.6614093095866,26.4897535988941
36.6302243627765,50.5662944021472
11.5782870691892,23.862645087943
16.0966735834049,52.6148011125802
